{
    "model": {
        "fun_activ": "tanh",
        "hide_ly": [100, 150, 100],
        "normalize": true,
        "dropout": 0.5
    },
    "fit": {
        "test_size": 0.30,
        "batch_size":512,
        "epochs": 300,
        "verbose": 0,
        "early_stopping": true,
        "GPU": "2"
    },
    "dataset": {
        "path": "dataset/showers1k_h_I.csv",
        "primary": "I",
        "datacut": "Xmax",
        "dataMax": 1000,
        "dataMin": 500,
        "target": ["Xmax"],
        "predictor": ["lgE"]
    }
}